<?xml version="1.0" encoding="UTF-8"?>
<session version="1.0">
<refactoring comment="Delete resource &apos;JSONTransTest&apos;" deleteContents="false" description="Delete resource &apos;JSONTransTest&apos;" element1="/JSONTransTest" flags="7" id="org.eclipse.ltk.core.refactoring.delete.resources" resources="1" stamp="1516807033940"/>
</session>